  0
SECTION
  2
HEADER
  9
$ACADVER
  1
AC1009
  9
$INSBASE
 10
0.0
 20
0.0
 30
0.0
  9
$EXTMIN
 10
0.0
 20
0.0
 30
0.0
  9
$EXTMAX
 10
0.0
 20
0.0
 30
0.0
  0
ENDSEC
  0
SECTION
  2
TABLES
  0
TABLE
  2
VPORT
 70
0
  0
ENDTAB
  0
TABLE
  2
LTYPE
 70
1
  0
LTYPE
  2
CONTINUOUS
 70
0
  3
Solid line
 72
65
 73
0
 40
0.0
  0
ENDTAB
  0
TABLE
  2
LAYER
 70
1
  0
LAYER
  2
0
 70
64
 62
7
  6
continuous
  0
ENDTAB
  0
TABLE
  2
STYLE
 70
1
  0
STYLE
  2
STANDARD
 70
0
 40
0
 41
1.0
 50
0.0
 71
0
 42
1
 3
ARIAL.TTF
 4

  0
ENDTAB
  0
TABLE
  2
VIEW
 70
0
  0
ENDTAB
  0
ENDSEC
  0
SECTION
  2
BLOCKS
  0
BLOCK
  8
0
  2
PAD
 70
0
 10
0.0
 20
0.0
 30
0.0
  3
PAD
  0
LINE
  8
0
 62
0
 10
-69.85
 20
-62.103
 30
0.0
 11
69.85
 21
-62.103
 31
0.0
  0
LINE
  8
0
 62
0
 10
69.85
 20
62.103
 30
0.0
 11
69.85
 21
-62.103
 31
0.0
  0
LINE
  8
0
 62
0
 10
-69.85
 20
62.103
 30
0.0
 11
69.85
 21
62.103
 31
0.0
  0
LINE
  8
0
 62
0
 10
-69.85
 20
-62.103
 30
0.0
 11
-69.85
 21
62.103
 31
0.0
  0
LINE
  8
0
 62
0
 10
-13.1711591247
 20
41.992981
 30
0.0
 11
13.1711591247
 21
41.992981
 31
0.0
  0
LINE
  8
0
 62
0
 10
13.1711591247
 20
41.992981
 30
0.0
 11
13.1711591247
 21
21.216852
 31
0.0
  0
LINE
  8
0
 62
0
 10
13.1711591247
 20
21.216852
 30
0.0
 11
-13.1711591247
 21
21.216852
 31
0.0
  0
LINE
  8
0
 62
0
 10
-13.1711591247
 20
21.216852
 30
0.0
 11
-13.1711591247
 21
41.992981
 31
0.0
  0
CIRCLE
  8
0
 62
0
 10
39.878
 20
-46.042155
 30
0.0
 40
4.2
  0
CIRCLE
  8
0
 62
0
 10
56.896
 20
-49.53
 30
0.0
 40
4.2
  0
CIRCLE
  8
0
 62
0
 10
39.878
 20
44.9104967751
 30
0.0
 40
4.2
  0
CIRCLE
  8
0
 62
0
 10
-56.896
 20
-49.53
 30
0.0
 40
4.2
  0
CIRCLE
  8
0
 62
0
 10
39.878
 20
14.409845
 30
0.0
 40
4.2
  0
CIRCLE
  8
0
 62
0
 10
39.878
 20
-15.816155
 30
0.0
 40
4.2
  0
CIRCLE
  8
0
 62
0
 10
39.878
 20
-36.136155
 30
0.0
 40
3.1
  0
CIRCLE
  8
0
 62
0
 10
-56.896
 20
49.53
 30
0.0
 40
3.1
  0
CIRCLE
  8
0
 62
0
 10
39.878
 20
35.0044967751
 30
0.0
 40
3.1
  0
CIRCLE
  8
0
 62
0
 10
56.896
 20
49.53
 30
0.0
 40
3.1
  0
CIRCLE
  8
0
 62
0
 10
-39.878
 20
44.9104967751
 30
0.0
 40
3.1
  0
CIRCLE
  8
0
 62
0
 10
-39.878
 20
-36.136155
 30
0.0
 40
3.1
  0
CIRCLE
  8
0
 62
0
 10
-39.878
 20
-46.042155
 30
0.0
 40
3.1
  0
CIRCLE
  8
0
 62
0
 10
-39.878
 20
35.0044967751
 30
0.0
 40
3.1
  0
CIRCLE
  8
0
 62
0
 10
-39.878
 20
-15.816155
 30
0.0
 40
3.1
  0
CIRCLE
  8
0
 62
0
 10
39.878
 20
4.503845
 30
0.0
 40
3.1
  0
CIRCLE
  8
0
 62
0
 10
-39.878
 20
14.409845
 30
0.0
 40
3.1
  0
CIRCLE
  8
0
 62
0
 10
-39.878
 20
4.503845
 30
0.0
 40
3.1
  0
CIRCLE
  8
0
 62
0
 10
10.033
 20
-8.720048
 30
0.0
 40
3.1
  0
CIRCLE
  8
0
 62
0
 10
-10.033
 20
-8.720048
 30
0.0
 40
3.1
  0
ENDBLK
  0
ENDSEC
  0
SECTION
  2
ENTITIES
  0
INSERT
  2
PAD
  8
0
 62
0
 10
0.0
 20
0.0
 30
0.0
  0
ENDSEC
  0
EOF
